<svg xmlns="http://www.w3.org/2000/svg" viewBox="0 0 41.805 41.805">
  <defs>
    <style>
      .cls-1 {
        fill: #0129ad;
      }
    </style>
  </defs>
  <g id="circle" transform="translate(-159.424 -618.473)">
    <g id="Group_411" data-name="Group 411" transform="translate(159.424 618.473)">
      <path id="Path_363" data-name="Path 363" class="cls-1" d="M35.683,6.122A20.9,20.9,0,1,0,6.122,35.683,20.9,20.9,0,1,0,35.683,6.122Z"/>
    </g>
  </g>
</svg>
